{
  "user":[
    {
    "username":"Divya",
    "password":"456234"
    }
  ],
  "TimeTable":[
    {
      "id": 1,
      "Period": 1,
      "Day": "Monday",
      "Subject": "Maths"
    }
  ],
  "Activities": [
    {
      "id": 1,
      "activity": "Create Project File",
      "subject": "Maths"
    }
  ],
  "Extra_Activity": [
    {
      "id": 1,
      "date": "13/12/2021",
      "activity": "Learned Chapter 12",
      "Subject": "Science"
    }]
    ,
  "Profile": [
    {
      "id": 1,
      "Name": "Dev",
      "Phone": "8500389212",
      "Subject": "Science"
    }, {
      "id": 2,
      "Name": "rohan",
      "Phone": "9441334224",
      "Subject": "Science"
    }, {
      "id": 3,
      "Name": "elon",
      "Phone": "9848839185",
      "Subject": "Science"
    }, {
      "id": 4,
      "Name": "Dev",
      "Phone": "9123456788",
      "Subject": "Science"
    }, {
      "id": 5,
      "Name": "shri",
      "Phone": "9291540689",
      "Subject": "Science"
    }
  ]
}